Tarea: Índice de nutrientes en ríos (NRSA 2018-19 -> 2023-24)
…
# Hay un par de duplicados
pchl_train <- pchl_train |>
  group_by(site, visit) |>
  summarise(chla_peri = mean(chla_peri, na.rm = TRUE),
            .groups = "drop")
pchl_train |> count(site, visit) |> filter(n > 1)

# A tibble: 0 × 3
# ℹ 3 variables: site <chr>, visit <dbl>, n <int>

pbio_test |> count(site, visit) |> filter(n > 1)

# A tibble: 38 × 3
   site           visit     n
   <chr>          <dbl> <int>
 1 NRS23_CA_HP001     1     2
 2 NRS23_CA_HP005     1     2
 3 NRS23_CA_HP006     1     2
 4 NRS23_FL_HP001     1     2
 5 NRS23_IA_HP001     1     2
 6 NRS23_KS_HP001     1     2
 7 NRS23_KY_HP001     1     2
 8 NRS23_KY_HP002     1     2
 9 NRS23_ME_HP001     1     2
10 NRS23_ME_HP003     1     2
# ℹ 28 more rows

pchl_test|> count(site, visit) |> filter(n > 1)

# A tibble: 38 × 3
   site           visit     n
   <chr>          <dbl> <int>
 1 NRS23_CA_HP001     1     2
 2 NRS23_CA_HP005     1     2
 3 NRS23_CA_HP006     1     2
 4 NRS23_FL_HP001     1     2
 5 NRS23_IA_HP001     1     2
 6 NRS23_KS_HP001     1     2
 7 NRS23_KY_HP001     1     2
 8 NRS23_KY_HP002     1     2
 9 NRS23_ME_HP001     1     2
10 NRS23_ME_HP003     1     2
# ℹ 28 more rows
…
¿Que familias concentran taxa con optimos similares? Calculo la desviación estándar de los óptimos por familia y los que tengan la menor sd son los que concentran taxa con óptimos más similares. Lo hago de esta forma porque el gráfico es poco legible.

family_summary <- taxonomy_optima |>
  group_by(FAMILY) |>
  summarise(
    n_generos = n(),
    sd = sd(optimum_logtp, na.rm = TRUE),
    .groups = "drop"
  ) |>
  arrange(sd)

family_summary

# A tibble: 188 × 3
   FAMILY         n_generos     sd
   <chr>              <int>  <dbl>
 1 THIARIDAE              2 0.0125
 2 ANCYLIDAE              3 0.0285
 3 SPERCHONIDAE           2 0.0507
 4 SISYRIDAE              2 0.0543
 5 OLIGONEURIIDAE         2 0.0560
 6 ODONTOCERIDAE          4 0.0694
 7 PROTZIIDAE             2 0.0709
 8 EPHEMERELLIDAE        13 0.0730
 9 APATANIIDAE            3 0.0747
10 LEBERTIIDAE            2 0.0828
# ℹ 178 more rows
…
